{
  "perguntas": [
    {
      "order": 1,
      "tipo": "text",
      "obrigatorio": "N",
      "mascara": null,
      "tamanho": "20",
      "descricao": "[TEST $$TEST$$] Pergunta 01 (Texto)",
      "status": "A"
    },
    {
      "tipo": "number",
      "order": 2,
      "obrigatorio": "S",
      "mascara": "##-###",
      "tamanho": "5",
      "descricao": "[TEST $$TEST$$] Pergunta 02 (Número)",
      "status": "A"
    },
    {
      "tipo": "address",
      "order": 3,
      "obrigatorio": "S",
      "mascara": null,
      "tamanho": null,
      "descricao": "[TEST $$TEST$$] Pergunta 03 (Endereço)",
      "status": "A"
    },
    {
      "tipo": "select",
      "order": 4,
      "obrigatorio": "N",
      "mascara": [
        "Resposta 01",
        "Resposta 02",
        "Resposta 03",
        "Resposta 04",
        "Resposta 05"
      ],
      "tamanho": null,
      "descricao": "[TEST $$TEST$$] Pergunta 04 (Combo Box)",
      "status": "A"
    },
    {
      "tipo": "radio",
      "order": 5,
      "obrigatorio": "N",
      "mascara": [
        "Resposta 01",
        "Resposta 02",
        "Resposta 03",
        "Resposta 04",
        "Resposta 05"
      ],
      "tamanho": null,
      "descricao": "[TEST $$TEST$$] Pergunta 05 (Radio Button)",
      "status": "A"
    },
    {
      "tipo": "checkbox",
      "order": 6,
      "obrigatorio": "N",
      "mascara": [
        "Resposta 01",
        "Resposta 02",
        "Resposta 03",
        "Resposta 04",
        "Resposta 05"
      ],
      "tamanho": null,
      "descricao": "[TEST $$TEST$$] Pergunta 06 (Check Box)",
      "status": "A"
    },
    {
      "tipo": "checkboxqtd",
      "order": 7,
      "obrigatorio": "N",
      "mascara": [
        "Resposta 01",
        "Resposta 02",
        "Resposta 03",
        "Resposta 04",
        "Resposta 05"
      ],
      "tamanho": null,
      "descricao": "[TEST $$TEST$$] Pergunta 07 (Check Box + QTD)",
      "status": "A"
    },
    {
      "tipo": "photo",
      "order": 8,
      "obrigatorio": "N",
      "mascara": null,
      "tamanho": "5",
      "descricao": "[TEST $$TEST$$] Pergunta 08 (Imagem) - Câmera",
      "status": "A"
    },
    {
      "tipo": "photog",
      "order": 9,
      "obrigatorio": "N",
      "descricao": "[TEST $$TEST$$] Pergunta 09 (Imagem) - Biblioteca",
      "mascara": null,
      "tamanho": "5",
      "photoType": "g",
      "status": "A"
    },
    {
      "tipo": "photocg",
      "order": 10,
      "obrigatorio": "N",
      "descricao": "[TEST $$TEST$$] Pergunta 10 (Imagem) - Câmera + Biblioteca",
      "mascara": null,
      "tamanho": "5",
      "status": "A"
    },
	{
	  "tipo": "techx-estrutura",
	  "order": 11,
	  "obrigatorio": "N",
	  "mascara": "{\"origem\":\"segmento\",\"valor\":\"techx.segmento.descricao\",\"filtro\":[{\"campo\":\"techx.segmento.status\",\"valor\":\"A\",\"oper\":\"neq\",\"alias\":\"Código\"}]}",
	  "tamanho": null,
	  "descricao": "[TEST $$TEST$$] Pergunta 11 (Estrutura) - Segmento",
	  "status": "A"
	},
	{
	  "tipo": "techx-estrutura",
	  "order": 12,
	  "obrigatorio": "N",
	  "descricao": "[TEST $$TEST$$] Pergunta 12 (Estrutura) - MacroArea",
	  "mascara": "{\"origem\":\"macroarea\",\"valor\":\"techx.macroarea.descricao\",\"filtro\":[{\"campo\":\"techx.macroarea.status\",\"valor\":\"A\",\"oper\":\"neq\",\"alias\":\"Código\"}]}",
	  "tamanho": null,
	  "status": "A"
	},
	{
	  "tipo": "techx-estrutura",
	  "order": 13,
	  "obrigatorio": "N",
	  "descricao": "[TEST $$TEST$$] Pergunta 13 (Estrutura) - Empreendimento",
	  "mascara": "{\"origem\":\"empreendimento\",\"valor\":\"techx.empreendimento.descricao\",\"filtro\":[{\"campo\":\"techx.empreendimento.status\",\"valor\":\"A\",\"oper\":\"neq\",\"alias\":\"Código\"}]}",
	  "tamanho": null,
	  "status": "A"
	},
    {
      "descricao": "[TEST $$TEST$$] Pergunta 14 (Dependencia)",
      "order": 14,
      "mascara": null,
      "tamanho": null,
      "tipo": "dependencia",
      "obrigatorio": "N",
      "status": "A",
      "opcao": [
        {
          "descricao": "[TEST $$TEST$$] Opcao 14.01",
          "perguntas": [
            {
              "order": 1,
              "tipo": "text",
              "obrigatorio": "N",
              "mascara": null,
              "tamanho": "20",
              "descricao": "[TEST $$TEST$$] Pergunta 14.1.1 (Texto)",
              "status": "A"
            },
            {
              "order": 2,
              "tipo": "text",
              "obrigatorio": "N",
              "mascara": null,
              "tamanho": "20",
              "descricao": "[TEST $$TEST$$] Pergunta 14.1.2 (Texto)",
              "status": "A"
            },
            {
              "descricao": "[TEST $$TEST$$] Pergunta 14.1.3 (Subpergunta)",
              "order": 14,
              "mascara": null,
              "tamanho": null,
              "tipo": "subpergunta",
              "obrigatorio": "N",
              "status": "A",
              "opcao": [
                {
                  "descricao": "[TEST $$TEST$$] Opcao 14.1.3",
                  "perguntas": [
                    {
                      "order": 1,
                      "tipo": "text",
                      "obrigatorio": "N",
                      "mascara": null,
                      "tamanho": "20",
                      "descricao": "[TEST $$TEST$$] Pergunta 14.1.3.1 (Texto)",
                      "status": "A"
                    },
                    {
                      "order": 2,
                      "tipo": "text",
                      "obrigatorio": "N",
                      "mascara": null,
                      "tamanho": "20",
                      "descricao": "[TEST $$TEST$$] Pergunta 14.1.3.2 (Texto)",
                      "status": "A"
                    },
                    {
                      "descricao": "[TEST $$TEST$$] Pergunta 14.1.3.3 (Subpergunta)",
                      "order": 14,
                      "mascara": null,
                      "tamanho": null,
                      "tipo": "subpergunta",
                      "obrigatorio": "N",
                      "status": "A",
                      "opcao": [
                        {
                          "descricao": "[TEST $$TEST$$] Opcao 14.1.3.3",
                          "perguntas": [
                            {
                              "order": 1,
                              "tipo": "text",
                              "obrigatorio": "N",
                              "mascara": null,
                              "tamanho": "20",
                              "descricao": "[TEST $$TEST$$] Pergunta 14.1.3.3.1 (Texto)",
                              "status": "A"
                            },
                            {
                              "order": 2,
                              "tipo": "text",
                              "obrigatorio": "N",
                              "mascara": null,
                              "tamanho": "20",
                              "descricao": "[TEST $$TEST$$] Pergunta 14.1.3.3.2 (Texto)",
                              "status": "A"
                            }
                          ]
                        }
                      ]
                    }
                  ]
                }
              ]
            }
          ]
        },
        {
          "descricao": "[TEST $$TEST$$] Opcao 14.02",
          "perguntas": [
            {
              "order": 1,
              "tipo": "text",
              "obrigatorio": "N",
              "mascara": null,
              "tamanho": "20",
              "descricao": "[TEST $$TEST$$] Pergunta 14.2.1 (Texto)",
              "status": "A"
            },
            {
              "order": 2,
              "tipo": "text",
              "obrigatorio": "N",
              "mascara": null,
              "tamanho": "20",
              "descricao": "[TEST $$TEST$$] Pergunta 14.2.2 (Texto)",
              "status": "A"
            }
          ]
        },
        {
          "descricao": "[TEST $$TEST$$] Opcao 14.03",
          "perguntas": [
            {
              "order": 1,
              "tipo": "text",
              "obrigatorio": "N",
              "mascara": null,
              "tamanho": "20",
              "descricao": "[TEST $$TEST$$] Pergunta 14.3.1 (Texto)",
              "status": "A"
            },
            {
              "order": 2,
              "tipo": "text",
              "obrigatorio": "N",
              "mascara": null,
              "tamanho": "20",
              "descricao": "[TEST $$TEST$$] Pergunta 14.3.2 (Texto)",
              "status": "A"
            }
          ]
        }
      ]
    },
    {
      "descricao": "[TEST $$TEST$$] Pergunta 15 (Subpergunta)",
      "order": 15,
      "mascara": null,
      "tamanho": null,
      "tipo": "subpergunta",
      "obrigatorio": "N",
      "status": "A",
      "opcao": [
        {
          "descricao": "[TEST $$TEST$$] Opcao 15.01",
          "perguntas": [
            {
              "order": 1,
              "tipo": "text",
              "obrigatorio": "N",
              "mascara": null,
              "tamanho": "20",
              "descricao": "[TEST $$TEST$$] Pergunta 15.1.1 (Texto)",
              "status": "A"
            },
            {
              "order": 2,
              "tipo": "text",
              "obrigatorio": "N",
              "mascara": null,
              "tamanho": "20",
              "descricao": "[TEST $$TEST$$] Pergunta 15.1.2 (Texto)",
              "status": "A"
            }
          ]
        },
        {
          "descricao": "[TEST $$TEST$$] Opcao 15.02",
          "perguntas": [
            {
              "order": 1,
              "tipo": "text",
              "obrigatorio": "N",
              "mascara": null,
              "tamanho": "20",
              "descricao": "[TEST $$TEST$$] Pergunta 15.2.1 (Texto)",
              "status": "A"
            },
            {
              "order": 2,
              "tipo": "text",
              "obrigatorio": "N",
              "mascara": null,
              "tamanho": "20",
              "descricao": "[TEST $$TEST$$] Pergunta 15.2.2 (Texto)",
              "status": "A"
            }
          ]
        },
        {
          "descricao": "[TEST $$TEST$$] Opcao 15.03",
          "perguntas": [
            {
              "order": 1,
              "tipo": "text",
              "obrigatorio": "N",
              "mascara": null,
              "tamanho": "20",
              "descricao": "[TEST $$TEST$$] Pergunta 15.3.1 (Texto)",
              "status": "A"
            },
            {
              "order": 2,
              "tipo": "text",
              "obrigatorio": "N",
              "mascara": null,
              "tamanho": "20",
              "descricao": "[TEST $$TEST$$] Pergunta 15.3.2 (Texto)",
              "status": "A"
            }
          ]
        }
      ]
    }
  ],
  "status": "A",
  "diretorio_id": 9,
  "descricao": "[TEST $$TEST$$] Formulario de Teste (Com todas os tipos de pergunta)"
}
